trash/Ring_buffer_tb.vcd
$date
	Mon Oct 28 19:27:01 2019
$end
$version
	Icarus Verilog
$end
$timescale
	1ps
$end
$scope module Ring_buffer_tb $end
$var wire 1 ! valid $end
$var wire 1 " ready $end
$var wire 8 # dout [7:0] $end
$var wire 1 $ almost_full $end
$var reg 4 % back_len [3:0] $end
$var reg 1 & clk $end
$var reg 8 ' din [7:0] $end
$var reg 1 ( read_en $end
$var reg 1 ) resetn $end
$var reg 1 * write_en $end
$var integer 32 + j [31:0] $end
$scope function clogb2 $end
$var integer 32 , bit_depth [31:0] $end
$upscope $end
$scope module DUT $end
$var wire 4 - BACK_LEN [3:0] $end
$var wire 1 $ BUFF_ALMOST_FULL $end
$var wire 1 ! BUFF_READ_VALID $end
$var wire 1 " BUFF_WRITE_READY $end
$var wire 1 & CLK $end
$var wire 8 . DIN [7:0] $end
$var wire 1 ( RE $end
$var wire 1 ) RESETN $end
$var wire 1 * WE $end
$var wire 1 / read_en $end
$var wire 1 0 write_en $end
$var wire 1 1 not_empty $end
$var wire 1 2 full $end
$var wire 1 3 delay_valid $end
$var wire 1 4 delay_ready $end
$var wire 8 5 delay_dout [7:0] $end
$var wire 1 6 almost_full $end
$var wire 8 7 DOUT [7:0] $end
$scope function clogb2 $end
$var integer 32 8 bit_depth [31:0] $end
$upscope $end
$scope module back_delay $end
$var wire 1 & CLK $end
$var wire 4 9 DELAY_CLK [3:0] $end
$var wire 1 4 DELAY_READY $end
$var wire 8 : DIN [7:0] $end
$var wire 1 ) RESETN $end
$var wire 1 ; not_empty $end
$var wire 1 < full $end
$var wire 8 = DOUT [7:0] $end
$var wire 1 3 DELAY_VALID $end
$var reg 4 > delay_clk [3:0] $end
$var reg 4 ? delay_cnt [3:0] $end
$var reg 1 @ read_en $end
$var reg 1 3 valid $end
$var reg 1 A write_en $end
$scope function clogb2 $end
$var integer 32 B bit_depth [31:0] $end
$upscope $end
$scope module delay_buff $end
$var wire 1 & CLK $end
$var wire 8 C DIN [7:0] $end
$var wire 8 D DOUT [7:0] $end
$var wire 1 < FULL $end
$var wire 1 ; NOT_EMPTY $end
$var wire 1 @ RE $end
$var wire 1 ) RESETN $end
$var wire 1 A WE $end
$var wire 1 E fullD $end
$var wire 1 F rp_inc $end
$var wire 1 G wp_inc $end
$var wire 5 H wpD [4:0] $end
$var wire 5 I rpD [4:0] $end
$var wire 1 J not_emptyD $end
$var reg 8 K dout [7:0] $end
$var reg 1 L full $end
$var reg 1 M not_empty $end
$var reg 5 N rp [4:0] $end
$var reg 5 O wp [4:0] $end
$var integer 32 P i [31:0] $end
$scope function clogb2 $end
$var integer 32 Q bit_depth [31:0] $end
$upscope $end
$upscope $end
$upscope $end
$scope module buff_fifo $end
$var wire 1 & CLK $end
$var wire 8 R DIN [7:0] $end
$var wire 8 S DOUT [7:0] $end
$var wire 1 2 FULL $end
$var wire 1 1 NOT_EMPTY $end
$var wire 1 / RE $end
$var wire 1 ) RESETN $end
$var wire 1 0 WE $end
$var wire 1 T fullD $end
$var wire 1 U rp_inc $end
$var wire 1 V wp_inc $end
$var wire 6 W wpD [5:0] $end
$var wire 6 X rpD [5:0] $end
$var wire 1 Y not_emptyD $end
$var wire 6 Z diff [5:0] $end
$var wire 1 [ almost_fullD $end
$var wire 1 6 ALMOST_FULL $end
$var reg 1 6 almost_full $end
$var reg 8 \ dout [7:0] $end
$var reg 1 ] full $end
$var reg 1 ^ not_empty $end
$var reg 6 _ rp [5:0] $end
$var reg 6 ` wp [5:0] $end
$var integer 32 a i [31:0] $end
$scope function clogb2 $end
$var integer 32 b bit_depth [31:0] $end
$upscope $end
$upscope $end
$upscope $end
$scope task gen_busy_sig $end
$upscope $end
$scope task gen_busy_trg $end
$upscope $end
$scope task gen_noise $end
$upscope $end
$scope task gen_normal_sig $end
$upscope $end
$scope task gen_normal_trg $end
$upscope $end
$scope task read_out $end
$upscope $end
$scope task reset $end
$upscope $end
$upscope $end
$enddefinitions $end
#0
$dumpvars
bx b
bx a
bx `
bx _
x^
x]
bx \
x[
bx Z
xY
bx X
bx W
0V
0U
xT
bx S
bx R
bx Q
bx P
bx O
bx N
xM
xL
bx K
xJ
bx I
bx H
xG
xF
xE
bx D
bx C
bx B
xA
x@
bx ?
bx >
bx =
x<
x;
bx :
b10 9
bx 8
bx 7
x6
bx 5
x4
x3
x2
x1
00
0/
bx .
b10 -
bx ,
bx +
0*
0)
0(
bx '
0&
b10 %
x$
bx #
x"
x!
$end
#1000
0E
0T
0J
b0 I
b0 H
0F
0G
0"
0Y
0[
b0 Z
b0 X
b0 W
0;
0M
0<
0L
b0 N
b0 O
b10 >
b0 ?
0@
04
0A
03
0!
01
0^
0$
06
02
0]
b0 _
b0 `
b10000 P
b100000 a
1&
#2000
0&
#3000
b100000 a
b10000 P
1&
#4000
0&
#5000
b10000 P
b100000 a
1&
#6000
0&
#7000
b100000 a
b10000 P
1&
#8000
0&
#9000
1)
b10000 P
b100000 a
1&
#10000
0&
#11000
1J
b1 H
1G
1"
b1010 '
b1010 .
b1010 :
b1010 C
14
1A
b1 ?
b100000 a
b10000 P
1&
#12000
0&
#13000
b10 H
b1010 5
b1010 =
b1010 D
b1010 R
b1010 K
1;
1M
b1 O
b10 ?
b100000 a
1&
#14000
0&
#15000
b1 I
1F
b11 H
13
1@
b10 O
b100000 a
1&
#16000
0&
#17000
b10 I
b100 H
b1 N
b11 O
b100000 a
1&
#18000
0&
#19000
b11 I
b101 H
b10 N
b100 O
b100000 a
1&
#20000
0&
#21000
b100 I
b110 H
b11 N
b101 O
b100000 a
1&
#22000
0&
#23000
b101 I
b111 H
b100 N
b110 O
b100000 a
1&
#24000
0&
#25000
b110 I
b1000 H
b101 N
b111 O
b100000 a
1&
#26000
0&
#27000
b111 I
b1001 H
b110 N
b1000 O
b100000 a
1&
#28000
0&
#29000
b1000 I
b1010 H
b111 N
b1001 O
b100000 a
1&
#30000
0&
#31000
b1001 I
b1011 H
b1000 N
b1010 O
b100000 a
1&
#32000
0&
#33000
b1010 I
b1100 H
b1001 N
b1011 O
b100000 a
1&
#34000
0&
#35000
b1011 I
b1101 H
b1010 N
b1100 O
b100000 a
1&
#36000
0&
#37000
b1100 I
b1110 H
b1011 N
b1101 O
b100000 a
1&
#38000
0&
#39000
b1101 I
b1111 H
b1100 N
b1110 O
b100000 a
1&
#40000
0&
#41000
b1110 I
b10000 H
b1101 N
b1111 O
b100000 a
1&
#42000
0&
#43000
b1111 I
b10001 H
b1110 N
b10000 O
b100000 a
1&
#44000
0&
#45000
b10000 I
b10010 H
b1111 N
b10001 O
b100000 a
1&
#46000
0&
#47000
b10001 I
b10011 H
b10000 N
b10010 O
b100000 a
1&
#48000
0&
#49000
b10010 I
b10100 H
b10001 N
b10011 O
b100000 a
1&
#50000
0&
#51000
b10011 I
b10101 H
b10010 N
b10100 O
b100000 a
1&
#52000
0&
#53000
b10100 I
b10110 H
b10011 N
b10101 O
b100000 a
1&
#54000
0&
#55000
b10101 I
b10111 H
b10100 N
b10110 O
b100000 a
1&
#56000
0&
#57000
b10110 I
b11000 H
b10101 N
b10111 O
b100000 a
1&
#58000
0&
#59000
b10111 I
b11001 H
b10110 N
b11000 O
b100000 a
1&
#60000
0&
#61000
b11000 I
b11010 H
b10111 N
b11001 O
b100000 a
1&
#62000
0&
#63000
b11001 I
b11011 H
b11000 N
b11010 O
b100000 a
1&
#64000
0&
#65000
b11010 I
b11100 H
b11001 N
b11011 O
b100000 a
1&
#66000
0&
#67000
b11011 I
b11101 H
b11010 N
b11100 O
b100000 a
1&
#68000
0&
#69000
b11100 I
b11110 H
b11011 N
b11101 O
b100000 a
1&
#70000
0&
#71000
b11101 I
b11111 H
b10100 '
b10100 .
b10100 :
b10100 C
b11100 N
b11110 O
b100000 a
1&
#72000
0&
#73000
b11110 I
b0 H
b11101 N
b11111 O
b100000 a
1&
#74000
0&
#75000
b11111 I
b1 H
b11110 N
b0 O
b10100 5
b10100 =
b10100 D
b10100 R
b10100 K
b100000 a
1&
#76000
0&
#77000
b0 I
b10 H
b11111 N
b1 O
b100000 a
1&
#78000
0&
#79000
b1 I
b11 H
b0 N
b10 O
b100000 a
1&
#80000
0&
#81000
1Y
b1 Z
b1 W
1V
b10 I
b100 H
10
b1 N
b11 O
1*
b1100100 '
b1100100 .
b1100100 :
b1100100 C
b100000 a
1&
#82000
0&
#83000
b10 Z
b10 W
b11 I
b101 H
b1 `
1!
11
1^
b10100 #
b10100 7
b10100 S
b10100 \
b10 N
b100 O
1&
#84000
0&
#85000
b100 I
b110 H
b11 Z
b11 W
b1100100 5
b1100100 =
b1100100 D
b1100100 R
b1100100 K
b11 N
b101 O
b10 `
1&
#86000
0&
#87000
1[
b100 Z
b100 W
b101 I
b111 H
b11 `
b100 N
b110 O
1&
#88000
0&
#89000
b110 I
b1000 H
b101 Z
b101 W
b101 N
b111 O
1$
16
b100 `
1&
#90000
0&
#91000
b110 Z
b110 W
b111 I
b1001 H
b101 `
b110 N
b1000 O
b0 +
1&
#92000
0&
#93000
b1000 I
b1010 H
b111 Z
b111 W
b111 N
b1001 O
b110 `
1&
#94000
0&
#95000
b1000 Z
b1000 W
b1001 I
b1011 H
b111 `
b1000 N
b1010 O
1&
#96000
0&
#97000
b1010 I
b1100 H
b1001 Z
b1001 W
b1001 N
b1011 O
b1000 `
1&
#98000
0&
#99000
b1010 Z
b1010 W
b1011 I
b1101 H
b1001 `
b1010 N
b1100 O
1&
#100000
0&
#101000
b1100 I
b1110 H
b1011 Z
b1011 W
b1011 N
b1101 O
b1010 `
b1010000 '
b1010000 .
b1010000 :
b1010000 C
1&
#102000
0&
#103000
b1100 Z
b1100 W
b1101 I
b1111 H
b1011 `
b1100 N
b1110 O
1&
#104000
0&
#105000
b1110 I
b10000 H
b1101 Z
b1101 W
b1010000 5
b1010000 =
b1010000 D
b1010000 R
b1010000 K
b1101 N
b1111 O
b1100 `
1&
#106000
0&
#107000
b1110 Z
b1110 W
b1111 I
b10001 H
b1101 `
b1110 N
b10000 O
1&
#108000
0&
#109000
b10000 I
b10010 H
b1111 Z
b1111 W
b1111 N
b10001 O
b1110 `
1&
#110000
0&
#111000
0V
00
b1111 Z
b1111 W
b10001 I
b10011 H
0*
b1010 '
b1010 .
b1010 :
b1010 C
b1111 `
b10000 N
b10010 O
1&
#112000
0&
#113000
b10010 I
b10100 H
b10001 N
b10011 O
b100000 a
1&
#114000
0&
#115000
b10011 I
b10101 H
b10010 N
b10100 O
b1010 5
b1010 =
b1010 D
b1010 R
b1010 K
b100000 a
1&
#116000
0&
#117000
b10100 I
b10110 H
b10011 N
b10101 O
b100000 a
1&
#118000
0&
#119000
b10101 I
b10111 H
b10100 N
b10110 O
b100000 a
1&
#120000
0&
#121000
b10110 I
b11000 H
b10101 N
b10111 O
b100000 a
1&
#122000
0&
#123000
b10111 I
b11001 H
b10110 N
b11000 O
b100000 a
1&
#124000
0&
#125000
b11000 I
b11010 H
b10111 N
b11001 O
b100000 a
1&
#126000
0&
#127000
b11001 I
b11011 H
b11000 N
b11010 O
b100000 a
1&
#128000
0&
#129000
b11010 I
b11100 H
b11001 N
b11011 O
b100000 a
1&
#130000
0&
#131000
b11011 I
b11101 H
b11010 N
b11100 O
b100000 a
1&
#132000
0&
#133000
b11100 I
b11110 H
b11011 N
b11101 O
b100000 a
1&
#134000
0&
#135000
b11101 I
b11111 H
b11100 N
b11110 O
b100000 a
1&
#136000
0&
#137000
b11110 I
b0 H
b11101 N
b11111 O
b100000 a
1&
#138000
0&
#139000
b11111 I
b1 H
b11110 N
b0 O
b100000 a
1&
#140000
0&
#141000
b0 I
b10 H
b11111 N
b1 O
b100000 a
1&
#142000
0&
#143000
b1 I
b11 H
b0 N
b10 O
b100000 a
1&
#144000
0&
#145000
b10 I
b100 H
b1 N
b11 O
b100000 a
1&
#146000
0&
#147000
b11 I
b101 H
b10 N
b100 O
b100000 a
1&
#148000
0&
#149000
b100 I
b110 H
b11 N
b101 O
b100000 a
1&
#150000
0&
#151000
b101 I
b111 H
b100 N
b110 O
b100000 a
1&
#152000
0&
#153000
b110 I
b1000 H
b101 N
b111 O
b100000 a
1&
#154000
0&
#155000
b111 I
b1001 H
b110 N
b1000 O
b100000 a
1&
#156000
0&
#157000
b1000 I
b1010 H
b111 N
b1001 O
b100000 a
1&
#158000
0&
#159000
b1001 I
b1011 H
b1000 N
b1010 O
b100000 a
1&
#160000
0&
#161000
b1010 I
b1100 H
b1001 N
b1011 O
b100000 a
1&
#162000
0&
#163000
b1011 I
b1101 H
b1010 N
b1100 O
b100000 a
1&
#164000
0&
#165000
b1100 I
b1110 H
b1011 N
b1101 O
b100000 a
1&
#166000
0&
#167000
b1101 I
b1111 H
b1100 N
b1110 O
b100000 a
1&
#168000
0&
#169000
b1110 I
b10000 H
b1101 N
b1111 O
b100000 a
1&
#170000
0&
#171000
b1111 I
b10001 H
b10100 '
b10100 .
b10100 :
b10100 C
b1110 N
b10000 O
b100000 a
1&
#172000
0&
#173000
b10000 I
b10010 H
b1111 N
b10001 O
b100000 a
1&
#174000
0&
#175000
b10001 I
b10011 H
b10000 N
b10010 O
b10100 5
b10100 =
b10100 D
b10100 R
b10100 K
b100000 a
1&
#176000
0&
#177000
b10010 I
b10100 H
b10001 N
b10011 O
b100000 a
1&
#178000
0&
#179000
b10011 I
b10101 H
b10010 N
b10100 O
b100000 a
1&
#180000
0&
#181000
b10000 Z
b10000 W
1V
b10100 I
b10110 H
10
b10011 N
b10101 O
1*
b1100100 '
b1100100 .
b1100100 :
b1100100 C
b100000 a
1&
#182000
0&
#183000
b10001 Z
b10001 W
b10101 I
b10111 H
b10000 `
b10100 N
b10110 O
1&
#184000
0&
#185000
b10110 I
b11000 H
b10010 Z
b10010 W
b1100100 5
b1100100 =
b1100100 D
b1100100 R
b1100100 K
b10101 N
b10111 O
b10001 `
1&
#186000
0&
#187000
b10011 Z
b10011 W
b10111 I
b11001 H
b10010 `
b10110 N
b11000 O
1&
#188000
0&
#189000
b11000 I
b11010 H
b10100 Z
b10100 W
b10111 N
b11001 O
b10011 `
1&
#190000
0&
#191000
b10101 Z
b10101 W
b11001 I
b11011 H
b10100 `
b11000 N
b11010 O
1&
#192000
0&
#193000
b11010 I
b11100 H
b10110 Z
b10110 W
b11001 N
b11011 O
b10101 `
1&
#194000
0&
#195000
b10111 Z
b10111 W
b11011 I
b11101 H
b10110 `
b11010 N
b11100 O
1&
#196000
0&
#197000
b11100 I
b11110 H
b11000 Z
b11000 W
b11011 N
b11101 O
b10111 `
1&
#198000
0&
#199000
b11001 Z
b11001 W
b11101 I
b11111 H
b11000 `
b11100 N
b11110 O
1&
#200000
0&
#201000
b11110 I
b0 H
b11010 Z
b11010 W
b11101 N
b11111 O
b11001 `
b1010000 '
b1010000 .
b1010000 :
b1010000 C
1&
#202000
0&
#203000
b11011 Z
b11011 W
b11111 I
b1 H
b11010 `
b11110 N
b0 O
1&
#204000
0&
#205000
b0 I
b10 H
b11100 Z
b11100 W
b1010000 5
b1010000 =
b1010000 D
b1010000 R
b1010000 K
b11111 N
b1 O
b11011 `
1&
#206000
0&
#207000
b11101 Z
b11101 W
b1 I
b11 H
b11100 `
b0 N
b10 O
1&
#208000
0&
#209000
b10 I
b100 H
b11110 Z
b11110 W
b1 N
b11 O
b11101 `
1&
#210000
0&
#211000
0V
00
b11110 Z
b11110 W
b11 I
b101 H
0*
b1010 '
b1010 .
b1010 :
b1010 C
b11110 `
b10 N
b100 O
1&
#212000
0&
#213000
b100 I
b110 H
b11 N
b101 O
b100000 a
1&
#214000
0&
#215000
b101 I
b111 H
b100 N
b110 O
b1010 5
b1010 =
b1010 D
b1010 R
b1010 K
b100000 a
1&
#216000
0&
#217000
b110 I
b1000 H
b101 N
b111 O
b100000 a
1&
#218000
0&
#219000
b111 I
b1001 H
b110 N
b1000 O
b100000 a
1&
#220000
0&
#221000
b1000 I
b1010 H
b111 N
b1001 O
b100000 a
1&
#222000
0&
#223000
b1001 I
b1011 H
b1000 N
b1010 O
b100000 a
1&
#224000
0&
#225000
b1010 I
b1100 H
b1001 N
b1011 O
b100000 a
1&
#226000
0&
#227000
b1011 I
b1101 H
b1010 N
b1100 O
b100000 a
1&
#228000
0&
#229000
b1100 I
b1110 H
b1011 N
b1101 O
b100000 a
1&
#230000
0&
#231000
b1101 I
b1111 H
b1100 N
b1110 O
b100000 a
1&
#232000
0&
#233000
b1110 I
b10000 H
b1101 N
b1111 O
b100000 a
1&
#234000
0&
#235000
b1111 I
b10001 H
b1110 N
b10000 O
b100000 a
1&
#236000
0&
#237000
b10000 I
b10010 H
b1111 N
b10001 O
b100000 a
1&
#238000
0&
#239000
b10001 I
b10011 H
b10000 N
b10010 O
b100000 a
1&
#240000
0&
#241000
b10010 I
b10100 H
b10001 N
b10011 O
b100000 a
1&
#242000
0&
#243000
b10011 I
b10101 H
b10010 N
b10100 O
b100000 a
1&
#244000
0&
#245000
b10100 I
b10110 H
b10011 N
b10101 O
b100000 a
1&
#246000
0&
#247000
b10101 I
b10111 H
b10100 N
b10110 O
b100000 a
1&
#248000
0&
#249000
b10110 I
b11000 H
b10101 N
b10111 O
b100000 a
1&
#250000
0&
#251000
b11101 Z
b1 X
1U
b10111 I
b11001 H
1/
1(
b10110 N
b11000 O
b100000 a
1&
#252000
0&
#253000
b11000 I
b11010 H
b11100 Z
b10 X
b10111 N
b11001 O
b1 _
b100000 a
1&
#254000
0&
#255000
b11011 Z
b11 X
b11001 I
b11011 H
b10 _
b1100100 #
b1100100 7
b1100100 S
b1100100 \
b11000 N
b11010 O
b100000 a
1&
#256000
0&
#257000
b11010 I
b11100 H
b11010 Z
b100 X
b11001 N
b11011 O
b11 _
b100000 a
1&
#258000
0&
#259000
b11001 Z
b101 X
b11011 I
b11101 H
b100 _
b11010 N
b11100 O
b100000 a
1&
#260000
0&
#261000
b11100 I
b11110 H
b11000 Z
b110 X
b11011 N
b11101 O
b101 _
b100000 a
1&
#262000
0&
#263000
b10111 Z
b111 X
b11101 I
b11111 H
b110 _
b11100 N
b11110 O
b100000 a
1&
#264000
0&
#265000
b11110 I
b0 H
b10110 Z
b1000 X
b11101 N
b11111 O
b111 _
b100000 a
1&
#266000
0&
#267000
b10101 Z
b1001 X
b11111 I
b1 H
b1000 _
b11110 N
b0 O
b100000 a
1&
#268000
0&
#269000
b0 I
b10 H
b10100 Z
b1010 X
b11111 N
b1 O
b1001 _
b100000 a
1&
#270000
0&
#271000
b10011 Z
b1011 X
b1 I
b11 H
b10100 '
b10100 .
b10100 :
b10100 C
b1010 _
b0 N
b10 O
b100000 a
1&
#272000
0&
#273000
b10 I
b100 H
b10010 Z
b1100 X
b1 N
b11 O
b1011 _
b100000 a
1&
#274000
0&
#275000
b10001 Z
b1101 X
b11 I
b101 H
b1100 _
b1010000 #
b1010000 7
b1010000 S
b1010000 \
b10 N
b100 O
b10100 5
b10100 =
b10100 D
b10100 R
b10100 K
b100000 a
1&
#276000
0&
#277000
b100 I
b110 H
b10000 Z
b1110 X
b11 N
b101 O
b1101 _
b100000 a
1&
#278000
0&
#279000
b1111 Z
b1111 X
b101 I
b111 H
b1110 _
b100 N
b110 O
b100000 a
1&
#280000
0&
#281000
b11111 W
1V
b110 I
b1000 H
b1111 Z
b10000 X
10
b101 N
b111 O
b10100 #
b10100 7
b10100 S
b10100 \
b1111 _
1*
b1100100 '
b1100100 .
b1100100 :
b1100100 C
b100000 a
1&
#282000
0&
#283000
b10001 X
b1111 Z
b100000 W
b111 I
b1001 H
b10000 _
b11111 `
b110 N
b1000 O
1&
#284000
0&
#285000
b1000 I
b1010 H
b10010 X
b1111 Z
b100001 W
b1100100 5
b1100100 =
b1100100 D
b1100100 R
b1100100 K
b111 N
b1001 O
b1100100 #
b1100100 7
b1100100 S
b1100100 \
b10001 _
b100000 `
1&
#286000
0&
#287000
b10011 X
b1111 Z
b100010 W
b1001 I
b1011 H
b10010 _
b100001 `
b1000 N
b1010 O
1&
#288000
0&
#289000
b1010 I
b1100 H
b10100 X
b1111 Z
b100011 W
b1001 N
b1011 O
b10011 _
b100010 `
1&
#290000
0&
#291000
b10101 X
b1111 Z
b100100 W
b1011 I
b1101 H
b10100 _
b100011 `
b1010 N
b1100 O
1&
#292000
0&
#293000
b1100 I
b1110 H
b10110 X
b1111 Z
b100101 W
b1011 N
b1101 O
b10101 _
b100100 `
1&
#294000
0&
#295000
b10111 X
b1111 Z
b100110 W
b1101 I
b1111 H
b10110 _
b100101 `
b1100 N
b1110 O
1&
#296000
0&
#297000
b1110 I
b10000 H
b11000 X
b1111 Z
b100111 W
b1101 N
b1111 O
b10111 _
b100110 `
1&
#298000
0&
#299000
b11001 X
b1111 Z
b101000 W
b1111 I
b10001 H
b11000 _
b100111 `
b1110 N
b10000 O
1&
#300000
0&
#301000
b10000 I
b10010 H
b11010 X
b1111 Z
b101001 W
b1111 N
b10001 O
b11001 _
b101000 `
b1010000 '
b1010000 .
b1010000 :
b1010000 C
1&
#302000
0&
#303000
b11011 X
b1111 Z
b101010 W
b10001 I
b10011 H
b11010 _
b101001 `
b10000 N
b10010 O
1&
#304000
0&
#305000
b10010 I
b10100 H
b11100 X
b1111 Z
b101011 W
b1010000 5
b1010000 =
b1010000 D
b1010000 R
b1010000 K
b10001 N
b10011 O
b1010000 #
b1010000 7
b1010000 S
b1010000 \
b11011 _
b101010 `
1&
#306000
0&
#307000
b11101 X
b1111 Z
b101100 W
b10011 I
b10101 H
b11100 _
b101011 `
b10010 N
b10100 O
1&
#308000
0&
#309000
b10100 I
b10110 H
b11110 X
b1111 Z
b101101 W
b10011 N
b10101 O
b11101 _
b101100 `
1&
#310000
0&
#311000
0V
00
b11111 X
b1110 Z
b101101 W
b10101 I
b10111 H
0*
b1010 '
b1010 .
b1010 :
b1010 C
b11110 _
b101101 `
b10100 #
b10100 7
b10100 S
b10100 \
b10100 N
b10110 O
1&
#312000
0&
#313000
b10110 I
b11000 H
b1101 Z
b100000 X
b10101 N
b10111 O
b11111 _
b100000 a
1&
#314000
0&
#315000
b1100 Z
b100001 X
b10111 I
b11001 H
b100000 _
b1100100 #
b1100100 7
b1100100 S
b1100100 \
b10110 N
b11000 O
b1010 5
b1010 =
b1010 D
b1010 R
b1010 K
b100000 a
1&
#316000
0&
#317000
b11000 I
b11010 H
b1011 Z
b100010 X
b10111 N
b11001 O
b100001 _
b100000 a
1&
#318000
0&
#319000
b1010 Z
b100011 X
b11001 I
b11011 H
b100010 _
b11000 N
b11010 O
b100000 a
1&
#320000
0&
#321000
b11010 I
b11100 H
b1001 Z
b100100 X
b11001 N
b11011 O
b100011 _
b100000 a
1&
#322000
0&
#323000
b1000 Z
b100101 X
b11011 I
b11101 H
b100100 _
b11010 N
b11100 O
b100000 a
1&
#324000
0&
#325000
b11100 I
b11110 H
b111 Z
b100110 X
b11011 N
b11101 O
b100101 _
b100000 a
1&
#326000
0&
#327000
b110 Z
b100111 X
b11101 I
b11111 H
b100110 _
b11100 N
b11110 O
b100000 a
1&
#328000
0&
#329000
b11110 I
b0 H
b101 Z
b101000 X
b11101 N
b11111 O
b100111 _
b100000 a
1&
#330000
0&
#331000
b100 Z
b101001 X
b11111 I
b1 H
b101000 _
b11110 N
b0 O
b100000 a
1&
#332000
0&
#333000
b0 I
b10 H
0[
b11 Z
b101010 X
b11111 N
b1 O
b101001 _
b100000 a
1&
#334000
0&
#335000
b10 Z
b101011 X
b1 I
b11 H
b101010 _
0$
06
b1010000 #
b1010000 7
b1010000 S
b1010000 \
b0 N
b10 O
b100000 a
1&
#336000
0&
#337000
b10 I
b100 H
b1 Z
b101100 X
b1 N
b11 O
b101011 _
b100000 a
1&
#338000
0&
#339000
0Y
b0 Z
b101101 X
b11 I
b101 H
b101100 _
b10 N
b100 O
b100000 a
1&
#340000
0&
#341000
b100 I
b110 H
0U
0Y
0[
b0 Z
b101101 X
b11 N
b101 O
0!
01
0^
b101101 _
b100000 a
1&
#342000
0&
#343000
b101 I
b111 H
b100 N
b110 O
b100000 a
1&
#344000
0&
#345000
b110 I
b1000 H
b101 N
b111 O
b100000 a
1&
#346000
0&
#347000
b111 I
b1001 H
b110 N
b1000 O
b100000 a
1&
#348000
0&
#349000
b1000 I
b1010 H
b111 N
b1001 O
b100000 a
1&
#350000
0&
#351000
b1001 I
b1011 H
b1000 N
b1010 O
b100000 a
1&
#352000
0&
#353000
b1010 I
b1100 H
b1001 N
b1011 O
b100000 a
1&
#354000
0&
#355000
b1011 I
b1101 H
b1010 N
b1100 O
b100000 a
1&
#356000
0&
#357000
b1100 I
b1110 H
b1011 N
b1101 O
b100000 a
1&
#358000
0&
#359000
b1101 I
b1111 H
b1100 N
b1110 O
b100000 a
1&
#360000
0&
#361000
b1110 I
b10000 H
b1101 N
b1111 O
b100000 a
1&
#362000
0&
#363000
b1111 I
b10001 H
b1110 N
b10000 O
b100000 a
1&
#364000
0&
#365000
b10000 I
b10010 H
b1111 N
b10001 O
b100000 a
1&
#366000
0&
#367000
b10001 I
b10011 H
b10000 N
b10010 O
b100000 a
1&
#368000
0&
#369000
b10010 I
b10100 H
b10001 N
b10011 O
b100000 a
1&
#370000
0&
#371000
1Y
b1 Z
b101110 W
1V
10
b10011 I
b10101 H
1*
b11001000 '
b11001000 .
b11001000 :
b11001000 C
b10010 N
b10100 O
b100000 a
1&
#372000
0&
#373000
b101110 X
b10100 I
b10110 H
1U
b1 Z
b101111 W
b10011 N
b10101 O
b1010 #
b1010 7
b1010 S
b1010 \
1!
11
1^
b101110 `
1&
#374000
0&
#375000
b101111 X
b1 Z
b110000 W
b10101 I
b10111 H
b101110 _
b101111 `
b10100 N
b10110 O
b11001000 5
b11001000 =
b11001000 D
b11001000 R
b11001000 K
1&
#376000
0&
#377000
b10110 I
b11000 H
b110000 X
b1 Z
b110001 W
b10101 N
b10111 O
b11001000 #
b11001000 7
b11001000 S
b11001000 \
b101111 _
b110000 `
1&
#378000
0&
#379000
b110001 X
b1 Z
b110010 W
b10111 I
b11001 H
b110000 _
b110001 `
b10110 N
b11000 O
1&
#380000
0&
#381000
b11000 I
b11010 H
b110010 X
b1 Z
b110011 W
b10111 N
b11001 O
b110001 _
b110010 `
1&
#382000
0&
#383000
b110011 X
b1 Z
b110100 W
b11001 I
b11011 H
b110010 _
b110011 `
b11000 N
b11010 O
1&
#384000
0&
#385000
b11010 I
b11100 H
b110100 X
b1 Z
b110101 W
b11001 N
b11011 O
b110011 _
b110100 `
1&
#386000
0&
#387000
b110101 X
b1 Z
b110110 W
b11011 I
b11101 H
b110100 _
b110101 `
b11010 N
b11100 O
1&
#388000
0&
#389000
b11100 I
b11110 H
b110110 X
b1 Z
b110111 W
b11011 N
b11101 O
b110101 _
b110110 `
1&
#390000
0&
#391000
b110111 X
b1 Z
b111000 W
b11101 I
b11111 H
b110110 _
b110111 `
b11100 N
b11110 O
1&
#392000
0&
#393000
b11110 I
b0 H
b111000 X
b1 Z
b111001 W
b11101 N
b11111 O
b110111 _
b111000 `
1&
#394000
0&
#395000
b111001 X
b1 Z
b111010 W
b11111 I
b1 H
b111000 _
b111001 `
b11110 N
b0 O
1&
#396000
0&
#397000
b0 I
b10 H
b111010 X
b1 Z
b111011 W
b11111 N
b1 O
b111001 _
b111010 `
1&
#398000
0&
#399000
b111011 X
b1 Z
b111100 W
b1 I
b11 H
b111010 _
b111011 `
b0 N
b10 O
1&
#400000
0&
#401000
b10 I
b100 H
b111100 X
b1 Z
b111101 W
b1 N
b11 O
b111011 _
b111100 `
1&
#402000
0&
#403000
b111101 X
b1 Z
b111110 W
b11 I
b101 H
b111100 _
b111101 `
b10 N
b100 O
1&
#404000
0&
#405000
b100 I
b110 H
b111110 X
b1 Z
b111111 W
b11 N
b101 O
b111101 _
b111110 `
1&
#406000
0&
#407000
b111111 X
b1 Z
b0 W
b101 I
b111 H
b111110 _
b111111 `
b100 N
b110 O
1&
#408000
0&
#409000
b110 I
b1000 H
b0 X
b1 Z
b1 W
b101 N
b111 O
b111111 _
b0 `
1&
#410000
0&
#411000
0U
b0 X
b10 Z
b10 W
b111 I
b1001 H
0/
0(
b0 _
b1 `
b110 N
b1000 O
b1 +
1&
#412000
0&
#413000
b1000 I
b1010 H
b11 Z
b11 W
b111 N
b1001 O
b10 `
1&
#414000
0&
#415000
1[
b100 Z
b100 W
b1001 I
b1011 H
b11 `
b1000 N
b1010 O
1&
#416000
0&
#417000
b1010 I
b1100 H
b101 Z
b101 W
b1001 N
b1011 O
1$
16
b100 `
1&
#418000
0&
#419000
b110 Z
b110 W
b1011 I
b1101 H
b101 `
b1010 N
b1100 O
1&
#420000
0&
#421000
b1100 I
b1110 H
b111 Z
b111 W
b1011 N
b1101 O
b110 `
1&
#422000
0&
#423000
b1000 Z
b1000 W
b1101 I
b1111 H
b111 `
b1100 N
b1110 O
1&
#424000
0&
#425000
b1110 I
b10000 H
b1001 Z
b1001 W
b1101 N
b1111 O
b1000 `
1&
#426000
0&
#427000
b1010 Z
b1010 W
b1111 I
b10001 H
b1001 `
b1110 N
b10000 O
1&
#428000
0&
#429000
b10000 I
b10010 H
b1011 Z
b1011 W
b1111 N
b10001 O
b1010 `
1&
#430000
0&
#431000
b1100 Z
b1100 W
b10001 I
b10011 H
b110010 '
b110010 .
b110010 :
b110010 C
b1011 `
b10000 N
b10010 O
1&
#432000
0&
#433000
b10010 I
b10100 H
b1101 Z
b1101 W
b10001 N
b10011 O
b1100 `
1&
#434000
0&
#435000
b1110 Z
b1110 W
b10011 I
b10101 H
b1101 `
b10010 N
b10100 O
b110010 5
b110010 =
b110010 D
b110010 R
b110010 K
1&
#436000
0&
